{
  "count": 8797,
  "next": "https://searchinapi.tk/api/v2/products/?page=2",
  "previous": null,
  "results": [
    {
      "id": 443,
      "reviews": [
        {
          "id": 17,
          "review_date": "2022-05-31T12:41:28+05:30",
          "review": "Strong coffee",
          "product_rating": 0,
          "user_id": 25,
          "product_id": 443
        },
        {
          "id": 19,
          "review_date": "2022-05-31T13:05:20+05:30",
          "review": "review",
          "product_rating": 0,
          "user_id": 3,
          "product_id": 443
        },
        {
          "id": 20,
          "review_date": "2022-05-31T14:04:32+05:30",
          "review": "Test review",
          "product_rating": 0,
          "user_id": 2,
          "product_id": 443
        }
      ],
      "name": "Bru Instant Coffee 9.5Gm",
      "unique_id": "19605",
      "base_price": "100.00",
      "rating": 0,
      "sales": 28,
      "stocks": 0,
      "image_url": "https://m.media-amazon.com/images/I/61RuQOq3vTL._SL1280_.jpg",
      "combo_with": [],
      "related_products": [
        2221,
        2222,
        2223,
        2224
      ],
      "details": {
        "Product Details": "Fresh Coffee",
        "Product details": "Amazing taste",
        "Updating the database": "Stay tuned"
      },
      "weight": "95.00",
      "barcodes": "['0']",
      "manufacturing_date": "2022-05-14",
      "expiry_date": "2022-05-14",
      "category_id": 345,
      "brand_id": 144,
      "shopAdmin_id": [
        2
      ]
    },
    {
      "id": 444,
      "reviews": [],
      "name": "Mtr Rasam Powder 100G",
      "unique_id": "19657",
      "base_price": "65.00",
      "rating": 2,
      "sales": 1,
      "stocks": 7,
      "image_url": "https://encrypted-tbn0.gstatic.com/images?q=tbn:ANd9GcRoWWszq5LqQ-7cr5a1fDXfHEOtjvTo-dP6Bkv3LTT2blAm3ZWe9En2as_hD8o&s",
      "combo_with": [],
      "related_products": [
        457,
        459,
        461,
        466,
        480
      ],
      "details": {
        "Product details": "Details coming soon",
        "Updating the database": "Stay tuned"
      },
      "weight": "100.00",
      "barcodes": "['8901042954745']",
      "manufacturing_date": "2022-05-14",
      "expiry_date": "2022-05-14",
      "category_id": 2,
      "brand_id": 1,
      "shopAdmin_id": [
        4
      ]
    },
    {
      "id": 445,
      "reviews": [
        {
          "id": 15,
          "review_date": "2022-05-31T12:37:26+05:30",
          "review": "Awesome product. Must buy one.",
          "product_rating": 4,
          "user_id": 18,
          "product_id": 445
        },
        {
          "id": 16,
          "review_date": "2022-05-31T12:38:30+05:30",
          "review": "Must have product for everyone.",
          "product_rating": 3,
          "user_id": 4,
          "product_id": 445
        }
      ],
      "name": "Brush Mini Supadi 1Pc",
      "unique_id": "20340",
      "base_price": "25.00",
      "rating": 4,
      "sales": 10,
      "stocks": 0,
      "image_url": "https://encrypted-tbn0.gstatic.com/images?q=tbn:ANd9GcRpxD8DrW1WZnHiVdGvyeEs0rp1XjZdjh_1JsOgUqUMOZpcRLmad9KK3Vywag&s",
      "combo_with": [],
      "related_products": [
        1434,
        1435,
        1436,
        1442
      ],
      "details": {
        "Product details": "Details coming soon",
        "Updating the database": "Stay tuned"
      },
      "weight": "0.00",
      "barcodes": "['0']",
      "manufacturing_date": "2022-05-14",
      "expiry_date": "2022-05-14",
      "category_id": 192,
      "brand_id": 145,
      "shopAdmin_id": [
        2
      ]
    },
    {
      "id": 446,
      "reviews": [],
      "name": "Budhani Bros Wafer 165Gm 010419",
      "unique_id": "17815",
      "base_price": "60.00",
      "rating": 0,
      "sales": 1,
      "stocks": 0,
      "image_url": "https://encrypted-tbn0.gstatic.com/images?q=tbn:ANd9GcQmTOfn99UckGyHuiCuCjIQImFKJHrFpasROylMRvncol0xtsL7AuZ-xgyWXg&s",
      "combo_with": [],
      "related_products": [],
      "details": {
        "Product details": "Details coming soon",
        "Updating the database": "Stay tuned"
      },
      "weight": "165.00",
      "barcodes": "['8906010450052']",
      "manufacturing_date": "2022-05-14",
      "expiry_date": "2022-05-14",
      "category_id": 225,
      "brand_id": 146,
      "shopAdmin_id": [
        2
      ]
    },
    {
      "id": 447,
      "reviews": [],
      "name": "Rasoi Magic Paneer Butter Masala Mix  45G",
      "unique_id": "17816",
      "base_price": "42.00",
      "rating": 2,
      "sales": 0,
      "stocks": 6,
      "image_url": "https://encrypted-tbn0.gstatic.com/images?q=tbn:ANd9GcSAPSRoU7nBgG_O180mh23WqMoz1bRxuBvOndcKPrHWM6YFJ9Ip5hhH-5TMdNI&s",
      "combo_with": [],
      "related_products": [],
      "details": {
        "Product details": "Details coming soon",
        "Updating the database": "Stay tuned"
      },
      "weight": "45.00",
      "barcodes": "['8904208600937']",
      "manufacturing_date": "2022-05-14",
      "expiry_date": "2022-05-14",
      "category_id": 2,
      "brand_id": 1,
      "shopAdmin_id": [
        4
      ]
    },
    {
      "id": 448,
      "reviews": [],
      "name": "Budhani Cheese Crunch 56Gm",
      "unique_id": "17814",
      "base_price": "20.00",
      "rating": 0,
      "sales": 5,
      "stocks": 0,
      "image_url": "https://encrypted-tbn0.gstatic.com/images?q=tbn:ANd9GcRkDecXQmfr7lnmqzwERGa5oXuV5KTKu0kfaLpXaxyNxMhUDlqFoaFyARu42w&s",
      "combo_with": [],
      "related_products": [
        450
      ],
      "details": {
        "Product details": "Details coming soon",
        "Updating the database": "Stay tuned"
      },
      "weight": "56.00",
      "barcodes": "['8906010450434']",
      "manufacturing_date": "2022-05-14",
      "expiry_date": "2022-05-14",
      "category_id": 421,
      "brand_id": 146,
      "shopAdmin_id": [
        2
      ]
    },
    {
      "id": 449,
      "reviews": [],
      "name": "Nestle Kit Kat 4F 38.3Gm",
      "unique_id": "17813",
      "base_price": "25.00",
      "rating": 2,
      "sales": 0,
      "stocks": 13,
      "image_url": "https://encrypted-tbn0.gstatic.com/images?q=tbn:ANd9GcSMd_eySyKsyKbGwOPomQWvzS0NgoHUDUHndGH9qM0vqEiV1H6fInQeNVf3Ew&s",
      "combo_with": [],
      "related_products": [],
      "details": {
        "Product details": "Details coming soon",
        "Updating the database": "Stay tuned"
      },
      "weight": "39.00",
      "barcodes": "['8901058896411']",
      "manufacturing_date": "2022-05-14",
      "expiry_date": "2022-05-14",
      "category_id": 2,
      "brand_id": 1,
      "shopAdmin_id": [
        4
      ]
    },
    {
      "id": 450,
      "reviews": [],
      "name": "Budhani Farali Chiwsa 125G",
      "unique_id": "17812",
      "base_price": "50.00",
      "rating": 0,
      "sales": 1,
      "stocks": 0,
      "image_url": "https://encrypted-tbn0.gstatic.com/images?q=tbn:ANd9GcTksWThJvuL3ZocB-YfTPw-C-qjMbix7rZxJqboahaaoCiH0h7vsz4VNruJXA&s",
      "combo_with": [],
      "related_products": [
        448
      ],
      "details": {
        "Product details": "Details coming soon",
        "Updating the database": "Stay tuned"
      },
      "weight": "125.00",
      "barcodes": "['8906010450977']",
      "manufacturing_date": "2022-05-14",
      "expiry_date": "2022-05-14",
      "category_id": 421,
      "brand_id": 146,
      "shopAdmin_id": [
        2
      ]
    },
    {
      "id": 451,
      "reviews": [],
      "name": "Maggi Masala Noodles 420Gm",
      "unique_id": "17811",
      "base_price": "62.00",
      "rating": 2,
      "sales": 0,
      "stocks": 3,
      "image_url": "https://encrypted-tbn0.gstatic.com/images?q=tbn:ANd9GcQu0JlOo-ckjtk15oIbIzFUR3iRZFGK-jswf5kHUzcblHodLVB3r_9bpkWx9w&s",
      "combo_with": [],
      "related_products": [
        457,
        459,
        461,
        466,
        480
      ],
      "details": {
        "Product details": "Details coming soon",
        "Updating the database": "Stay tuned"
      },
      "weight": "420.00",
      "barcodes": "['8901058900187']",
      "manufacturing_date": "2022-05-14",
      "expiry_date": "2022-05-14",
      "category_id": 2,
      "brand_id": 1,
      "shopAdmin_id": [
        4
      ]
    },
    {
      "id": 452,
      "reviews": [],
      "name": "Bullion Coconut Candy 100 Gm",
      "unique_id": "1416",
      "base_price": "29.00",
      "rating": 0,
      "sales": 0,
      "stocks": 0,
      "image_url": "https://encrypted-tbn0.gstatic.com/images?q=tbn:ANd9GcSeV_gVaxVYQDNXU_4Vw0t8eWe9G2QdG9rOq72QvbgjAl1Nw5Pm1UD1Yejgtg&s",
      "combo_with": [],
      "related_products": [],
      "details": {
        "Product details": "Details coming soon",
        "Updating the database": "Stay tuned"
      },
      "weight": "100.00",
      "barcodes": "['8906012246622']",
      "manufacturing_date": "2022-05-14",
      "expiry_date": "2022-05-14",
      "category_id": 190,
      "brand_id": 30,
      "shopAdmin_id": [
        2
      ]
    },
    {
      "id": 453,
      "reviews": [],
      "name": "Maggi Chicken Noodles 71Gm",
      "unique_id": "1411",
      "base_price": "15.00",
      "rating": 2,
      "sales": 0,
      "stocks": 25,
      "image_url": "https://encrypted-tbn0.gstatic.com/images?q=tbn:ANd9GcTacMDmOYTGUR1PYe0nthelpVuvUtHrCCAO4IpAuulyoO-4L_03LCNlNum2hWs&s",
      "combo_with": [],
      "related_products": [
        457,
        459,
        461,
        466,
        480
      ],
      "details": {
        "Product details": "Details coming soon",
        "Updating the database": "Stay tuned"
      },
      "weight": "71.00",
      "barcodes": "['8901058890952']",
      "manufacturing_date": "2022-05-14",
      "expiry_date": "2022-05-14",
      "category_id": 2,
      "brand_id": 1,
      "shopAdmin_id": [
        4
      ]
    },
    {
      "id": 455,
      "reviews": [],
      "name": "Maggi Atta Noodles 75Gm",
      "unique_id": "1418",
      "base_price": "24.00",
      "rating": 2,
      "sales": 0,
      "stocks": 35,
      "image_url": "https://encrypted-tbn0.gstatic.com/images?q=tbn:ANd9GcR2gJAHv8j3ryI9XoEpFYu8cZr2ZJ4dsy1AQK7fJ7QOlDiCxHkpR6VAuHoVjaQ&s",
      "combo_with": [],
      "related_products": [
        457,
        459,
        461,
        466,
        480
      ],
      "details": {
        "Product details": "Details coming soon",
        "Updating the database": "Stay tuned"
      },
      "weight": "75.00",
      "barcodes": "['8901058901320']",
      "manufacturing_date": "2022-05-14",
      "expiry_date": "2022-05-14",
      "category_id": 2,
      "brand_id": 1,
      "shopAdmin_id": [
        4
      ]
    },
    {
      "id": 456,
      "reviews": [],
      "name": "Maggi Noodles 8 Pack 560Gm",
      "unique_id": "1412",
      "base_price": "101.00",
      "rating": 2,
      "sales": 3,
      "stocks": 260,
      "image_url": "https://encrypted-tbn0.gstatic.com/images?q=tbn:ANd9GcTfneOewxi_wFZwOBsdUXMkBng7lcrADcVjUsQ-TeYBKwfUDOo_xKgA74iPTfA&s",
      "combo_with": [],
      "related_products": [],
      "details": {
        "Product details": "Details coming soon",
        "Updating the database": "Stay tuned"
      },
      "weight": "560.00",
      "barcodes": "['8901058892819']",
      "manufacturing_date": "2022-05-14",
      "expiry_date": "2022-05-14",
      "category_id": 2,
      "brand_id": 1,
      "shopAdmin_id": [
        4
      ]
    },
    {
      "id": 457,
      "reviews": [
        {
          "id": 21,
          "review_date": "2022-06-04T16:44:26.729737+05:30",
          "review": "It's tasty",
          "product_rating": 1,
          "user_id": 4,
          "product_id": 457
        }
      ],
      "name": "Maggi Noodles Masala 280Gm",
      "unique_id": "19822",
      "base_price": "51.00",
      "rating": 0,
      "sales": 125,
      "stocks": 175,
      "image_url": "https://m.media-amazon.com/images/I/81dpDHc95AL._SL1500_.jpg",
      "combo_with": [],
      "related_products": [
        459,
        461,
        466,
        480
      ],
      "details": {
        "Product details": "Details coming soon",
        "Updating the database": "Stay tuned"
      },
      "weight": "280.00",
      "barcodes": "['8901058891430']",
      "manufacturing_date": "2022-05-14",
      "expiry_date": "2022-05-14",
      "category_id": 2,
      "brand_id": 1,
      "shopAdmin_id": [
        4
      ]
    },
    {
      "id": 458,
      "reviews": [],
      "name": "Cadbury 5 Star Bar 43Gm",
      "unique_id": "8451",
      "base_price": "20.00",
      "rating": 0,
      "sales": 123,
      "stocks": 0,
      "image_url": "https://encrypted-tbn0.gstatic.com/images?q=tbn:ANd9GcTm-pMasbqYhM6M_G5iyNcnxz5utHu2nQulXA8Xm5r1RHCcfSBy9llCUr8mZ2o&s",
      "combo_with": [],
      "related_products": [
        452,
        462,
        476,
        478
      ],
      "details": {
        "Product details": "Details coming soon",
        "Updating the database": "Stay tuned"
      },
      "weight": "43.00",
      "barcodes": "['7622201150419']",
      "manufacturing_date": "2022-05-14",
      "expiry_date": "2022-05-14",
      "category_id": 190,
      "brand_id": 32,
      "shopAdmin_id": [
        2,
        4
      ]
    },
    {
      "id": 459,
      "reviews": [
        {
          "id": 14,
          "review_date": "2022-05-24T13:16:36.739368+05:30",
          "review": "sweet",
          "product_rating": 4,
          "user_id": 15,
          "product_id": 459
        }
      ],
      "name": "Maggi Hot & Sweet Tcs 24X500Gm",
      "unique_id": "19830",
      "base_price": "111.00",
      "rating": 0,
      "sales": 22,
      "stocks": 8,
      "image_url": "https://encrypted-tbn0.gstatic.com/images?q=tbn:ANd9GcRL4_13gs9FhKt0XXdQOSbr9YJZ12t_45t1DprT39ChfXVC8MXpR1ZnZXWm9AM&s",
      "combo_with": [],
      "related_products": [
        457,
        461,
        466,
        480
      ],
      "details": {
        "Product details": "Details coming soon",
        "Updating the database": "Stay tuned"
      },
      "weight": "500.00",
      "barcodes": "['8901058896794']",
      "manufacturing_date": "2022-05-14",
      "expiry_date": "2022-05-14",
      "category_id": 2,
      "brand_id": 1,
      "shopAdmin_id": [
        4
      ]
    },
    {
      "id": 460,
      "reviews": [],
      "name": "Cadbury Bourn Vita 500Gm",
      "unique_id": "19832",
      "base_price": "210.00",
      "rating": 0,
      "sales": 9,
      "stocks": 0,
      "image_url": "https://encrypted-tbn0.gstatic.com/images?q=tbn:ANd9GcSL0a8U7MOe5S3OZrVhX5JOswRVy-tB4r__lO5Bfd_u4dLU_qyFZWltS-Uk3Q&s",
      "combo_with": [],
      "related_products": [
        463
      ],
      "details": {
        "Product details": "Details coming soon",
        "Updating the database": "Stay tuned"
      },
      "weight": "500.00",
      "barcodes": "['7622201423131']",
      "manufacturing_date": "2022-05-14",
      "expiry_date": "2022-05-14",
      "category_id": 228,
      "brand_id": 32,
      "shopAdmin_id": [
        2,
        4
      ]
    },
    {
      "id": 461,
      "reviews": [],
      "name": "Maggi Hot & Sweet Tcs Bottle 1Kg",
      "unique_id": "19831",
      "base_price": "163.00",
      "rating": 2,
      "sales": 9,
      "stocks": 2,
      "image_url": "https://encrypted-tbn0.gstatic.com/images?q=tbn:ANd9GcRL4_13gs9FhKt0XXdQOSbr9YJZ12t_45t1DprT39ChfXVC8MXpR1ZnZXWm9AM&s",
      "combo_with": [],
      "related_products": [],
      "details": {
        "Product details": "Details coming soon",
        "Updating the database": "Stay tuned"
      },
      "weight": "1000.00",
      "barcodes": "['8901058896190']",
      "manufacturing_date": "2022-05-14",
      "expiry_date": "2022-05-14",
      "category_id": 2,
      "brand_id": 1,
      "shopAdmin_id": [
        4
      ]
    },
    {
      "id": 462,
      "reviews": [],
      "name": "Cadbury Bournville Rich Cocoa 31Gm",
      "unique_id": "2261",
      "base_price": "45.00",
      "rating": 0,
      "sales": 7,
      "stocks": 0,
      "image_url": "https://encrypted-tbn0.gstatic.com/images?q=tbn:ANd9GcTW3fGiFme62g9UJTg3CEEJAp0XY2Bqvslo9F2RAA97ovDRCrS27bfpgibJpgE&s",
      "combo_with": [],
      "related_products": [
        452,
        458,
        469,
        472
      ],
      "details": {
        "Product details": "Details coming soon",
        "Updating the database": "Stay tuned"
      },
      "weight": "31.00",
      "barcodes": "['8901233021645']",
      "manufacturing_date": "2022-05-14",
      "expiry_date": "2022-05-14",
      "category_id": 190,
      "brand_id": 32,
      "shopAdmin_id": [
        2,
        4
      ]
    },
    {
      "id": 463,
      "reviews": [],
      "name": "Cadbury Bournvita Biscuitss 4*100Gm",
      "unique_id": "19821",
      "base_price": "108.00",
      "rating": 0,
      "sales": 0,
      "stocks": 0,
      "image_url": "https://encrypted-tbn0.gstatic.com/images?q=tbn:ANd9GcRNoYr5SATjiekuJN37ruWG9_AanZaaBL_YPa6fCtt6HG25Gh2hsTjgWqTiXw&s",
      "combo_with": [],
      "related_products": [],
      "details": {
        "Product details": "Details coming soon",
        "Updating the database": "Stay tuned"
      },
      "weight": "400.00",
      "barcodes": "['7622201775681']",
      "manufacturing_date": "2022-05-14",
      "expiry_date": "2022-05-14",
      "category_id": 228,
      "brand_id": 32,
      "shopAdmin_id": [
        2,
        4
      ]
    }
  ]
}